{
  "port": 8001,
  "modules": {
    "g-doc": {
      "html": false
    },
    "g-foot": {
      "css": false
    },
    "g-head": {
      "css": false
    },
    "g-page": {
      "html": false
    },
    "g-errors": {},

    "b-svg": {},
    "b-grid": {},

    "u-support": {
      "js": true,
      "html": false,
      "css": false
    },
    "u-mixins": {
      "html": false
    },
    "u-vars": {
      "html": false
    },
    "i-icons": {
      "html": false,
      "css": false
    },
    "i-fonts": {
      "html": false
    },
    "header": {},
    "time": {},
    "date": {},
    "flight": {},
    "voyage": {},
    "head": {},
    "g-section": {},
    "trapeze": {}
  },
  "modernizr": {
    "minify": true,
    "classPrefix": "u-support--",
    "options": [
      "setClasses"
    ],
    "feature-detects": [
      "css/calc",
      "css/columns",
      "css/flexbox",
      "css/flexboxlegacy",
      "css/flexboxtweener",
      "css/flexwrap",
      "css/transforms",
      "img/webp",
      "svg/inline"
    ]
  }
}
